Voltage,SoC
3.36045,100.00
3.35520,99.90
3.35290,99.80
3.35093,99.70
3.34830,99.60
3.34699,99.50
3.34568,99.40
3.34403,99.302
3.34174,99.20
3.34108,99.10
3.34009,99.00
3.33977,98.90
3.33845,98.81
3.33812,98.71
3.33648,98.61
3.33583,98.51
3.33583,98.41
3.33451,98.31
3.33386,98.21
3.33353,98.11
3.33254,98.01
3.33287,97.91
3.33221,97.81
3.33090,97.71
3.33090,97.61
3.33090,97.51
3.32992,97.42
3.32992,97.32
3.32959,97.22
3.32893,97.12
3.32926,97.02
3.32795,96.92
3.32827,96.82
3.32795,96.72
3.32729,96.62
3.32696,96.52
3.32729,96.42
3.32663,96.32
3.32663,96.22
3.32598,96.12
3.32598,96.02
3.32565,95.92
3.32598,95.82
3.32532,95.72
3.32466,95.63
3.32499,95.53
3.32499,95.43
3.32499,95.33
3.32433,95.23
3.32466,95.13
3.32466,95.03
3.32433,94.93
3.32368,94.83
3.32433,94.73
3.32335,94.63
3.32368,94.53
3.32368,94.43
3.32335,94.33
3.32368,94.24
3.32302,94.13
3.32269,94.03
3.32302,93.93
3.32269,93.84
3.32204,93.74
3.32236,93.64
3.32204,93.54
3.32138,93.44
3.32204,93.34
3.32171,93.24
3.32204,93.14
3.32171,93.04
3.32105,92.94
3.32138,92.84
3.32072,92.74
3.32039,92.64
3.32039,92.54
3.32072,92.44
3.32072,92.35
3.32138,92.25
3.32039,92.15
3.32039,92.05
3.32039,91.95
3.31974,91.85
3.32007,91.75
3.32007,91.65
3.32007,91.55
3.31974,91.45
3.31941,91.35
3.31974,91.25
3.31941,91.15
3.31941,91.05
3.31908,90.95
3.31908,90.85
3.31908,90.75
3.31908,90.65
3.31941,90.56
3.31908,90.46
3.31842,90.36
3.31809,90.26
3.31908,90.16
3.31875,90.06
3.31875,89.96
3.31842,89.86
3.31842,89.76
3.31842,89.66
3.31809,89.56
3.31809,89.46
3.31809,89.36
3.31777,89.26
3.31842,89.17
3.31711,89.07
3.31744,88.97
3.31777,88.87
3.31744,88.77
3.31744,88.67
3.31744,88.57
3.31744,88.47
3.31678,88.37
3.31645,88.27
3.31777,88.17
3.31678,88.07
3.31777,87.97
3.31744,87.87
3.31744,87.77
3.31744,87.67
3.31612,87.57
3.31678,87.47
3.31678,87.38
3.31645,87.28
3.31678,87.18
3.31645,87.08
3.31645,86.98
3.31580,86.88
3.31580,86.78
3.31580,86.68
3.31580,86.58
3.31547,86.48
3.31580,86.38
3.31612,86.28
3.31580,86.18
3.31514,86.08
3.31481,85.98
3.31481,85.88
3.31514,85.78
3.31481,85.68
3.31514,85.59
3.31514,85.49
3.31547,85.39
3.31448,85.29
3.31514,85.19
3.31514,85.09
3.31448,84.99
3.31448,84.89
3.31448,84.79
3.31448,84.69
3.31415,84.59
3.31415,84.49
3.31448,84.39
3.31383,84.29
3.31383,84.19
3.31350,84.10
3.31448,84.00
3.31383,83.90
3.31415,83.80
3.31317,83.70
3.31350,83.60
3.31317,83.50
3.31350,83.40
3.31350,83.30
3.31284,83.20
3.31350,83.10
3.31251,83.00
3.31218,82.90
3.31284,82.80
3.31218,82.70
3.31186,82.60
3.31153,82.50
3.31218,82.40
3.31186,82.31
3.31218,82.21
3.31120,82.11
3.31153,82.01
3.31087,81.91
3.31153,81.81
3.31120,81.71
3.31087,81.61
3.31054,81.51
3.31054,81.41
3.31054,81.31
3.31021,81.21
3.30989,81.11
3.30989,81.01
3.31021,80.92
3.30956,80.82
3.30956,80.71
3.30923,80.61
3.30923,80.52
3.30890,80.42
3.30890,80.32
3.30857,80.22
3.30824,80.12
3.30857,80.02
3.30759,79.92
3.30792,79.82
3.30759,79.72
3.30726,79.62
3.30759,79.52
3.30693,79.42
3.30627,79.32
3.30562,79.22
3.30660,79.13
3.30562,79.03
3.30562,78.93
3.30496,78.83
3.30496,78.73
3.30398,78.63
3.30430,78.53
3.30365,78.43
3.30365,78.33
3.30266,78.23
3.30299,78.13
3.30233,78.03
3.30233,77.93
3.30102,77.83
3.30069,77.73
3.30135,77.63
3.30069,77.53
3.29938,77.43
3.29905,77.33
3.29938,77.24
3.29839,77.14
3.29807,77.04
3.29741,76.94
3.29741,76.84
3.29642,76.74
3.29675,76.64
3.29610,76.54
3.29544,76.44
3.29511,76.34
3.29511,76.24
3.29380,76.14
3.29380,76.04
3.29281,75.94
3.29314,75.85
3.29281,75.75
3.29150,75.65
3.29216,75.55
3.29117,75.45
3.29117,75.35
3.29051,75.25
3.29051,75.15
3.28920,75.05
3.28986,74.95
3.28920,74.85
3.28887,74.75
3.28756,74.65
3.28789,74.55
3.28756,74.45
3.28723,74.35
3.28657,74.25
3.28690,74.15
3.28657,74.06
3.28592,73.96
3.28559,73.86
3.28592,73.76
3.28526,73.66
3.28526,73.56
3.28559,73.46
3.28460,73.36
3.28395,73.26
3.28395,73.16
3.28362,73.06
3.28395,72.96
3.28395,72.86
3.28362,72.76
3.28362,72.66
3.28362,72.56
3.28296,72.46
3.28263,72.36
3.28263,72.27
3.28296,72.17
3.28263,72.07
3.28329,71.97
3.28198,71.87
3.28231,71.77
3.28231,71.67
3.28198,71.57
3.28231,71.47
3.28165,71.37
3.28099,71.27
3.28132,71.17
3.28132,71.07
3.28132,70.97
3.28099,70.87
3.28099,70.78
3.28165,70.68
3.28099,70.58
3.28066,70.48
3.28099,70.38
3.28034,70.28
3.28066,70.18
3.28099,70.08
3.28066,69.98
3.28066,69.88
3.28001,69.78
3.28034,69.68
3.27968,69.58
3.28066,69.48
3.28001,69.38
3.27968,69.28
3.28066,69.18
3.27968,69.08
3.27968,68.99
3.27902,68.89
3.27869,68.79
3.27935,68.69
3.27968,68.59
3.27902,68.49
3.27935,68.39
3.27935,68.29
3.27836,68.19
3.27869,68.09
3.27836,67.99
3.27804,67.89
3.27836,67.79
3.27836,67.69
3.27804,67.60
3.27869,67.50
3.27804,67.40
3.27836,67.29
3.27804,67.20
3.27804,67.10
3.27804,67.00
3.27804,66.90
3.27804,66.80
3.27705,66.70
3.27771,66.60
3.27836,66.50
3.27771,66.40
3.27705,66.30
3.27836,66.20
3.27738,66.10
3.27804,66.00
3.27771,65.90
3.27738,65.81
3.27771,65.71
3.27738,65.61
3.27738,65.51
3.27738,65.41
3.27771,65.31
3.27738,65.21
3.27672,65.11
3.27705,65.01
3.27672,64.91
3.27738,64.81
3.27672,64.71
3.27705,64.61
3.27705,64.51
3.27672,64.41
3.27639,64.31
3.27672,64.21
3.27738,64.11
3.27672,64.02
3.27705,63.92
3.27639,63.82
3.27607,63.72
3.27639,63.62
3.27672,63.52
3.27672,63.42
3.27574,63.32
3.27639,63.22
3.27639,63.12
3.27639,63.02
3.27607,62.92
3.27639,62.82
3.27574,62.72
3.27574,62.62
3.27607,62.53
3.27639,62.43
3.27607,62.33
3.27607,62.23
3.27639,62.13
3.27574,62.03
3.27541,61.93
3.27607,61.83
3.27607,61.73
3.27607,61.63
3.27574,61.53
3.27607,61.43
3.27574,61.33
3.27541,61.23
3.27607,61.13
3.27574,61.03
3.27541,60.93
3.27574,60.83
3.27475,60.74
3.27541,60.64
3.27508,60.54
3.27541,60.44
3.27475,60.34
3.27541,60.24
3.27541,60.14
3.27541,60.04
3.27508,59.94
3.27574,59.84
3.27574,59.74
3.27508,59.64
3.27541,59.54
3.27508,59.44
3.27541,59.35
3.27508,59.24
3.27541,59.14
3.27442,59.04
3.27508,58.95
3.27475,58.85
3.27541,58.75
3.27475,58.65
3.27410,58.55
3.27442,58.45
3.27442,58.35
3.27442,58.25
3.27410,58.15
3.27475,58.05
3.27442,57.95
3.27442,57.85
3.27475,57.75
3.27410,57.65
3.27410,57.56
3.27410,57.46
3.27475,57.36
3.27442,57.26
3.27410,57.16
3.27442,57.06
3.27442,56.96
3.27442,56.86
3.27377,56.76
3.27475,56.66
3.27410,56.56
3.27442,56.46
3.27442,56.36
3.27410,56.26
3.27442,56.16
3.27442,56.06
3.27442,55.96
3.27344,55.86
3.27377,55.76
3.27410,55.67
3.27377,55.57
3.27410,55.47
3.27344,55.37
3.27377,55.27
3.27410,55.17
3.27311,55.07
3.27377,54.97
3.27344,54.87
3.27344,54.77
3.27344,54.67
3.27344,54.57
3.27311,54.47
3.27410,54.37
3.27311,54.28
3.27311,54.18
3.27311,54.08
3.27278,53.98
3.27278,53.88
3.27311,53.78
3.27344,53.68
3.27311,53.58
3.27344,53.48
3.27278,53.38
3.27344,53.28
3.27344,53.18
3.27213,53.08
3.27344,52.98
3.27344,52.88
3.27311,52.78
3.27311,52.68
3.27245,52.58
3.27311,52.49
3.27245,52.39
3.27344,52.29
3.27311,52.19
3.27245,52.09
3.27278,51.99
3.27278,51.89
3.27213,51.79
3.27344,51.69
3.27278,51.59
3.27311,51.49
3.27245,51.39
3.27245,51.29
3.27245,51.19
3.27213,51.09
3.27213,50.99
3.27278,50.89
3.27245,50.79
3.27245,50.70
3.27245,50.60
3.27245,50.50
3.27213,50.40
3.27180,50.30
3.27245,50.20
3.27213,50.10
3.27147,50.00
3.27180,49.90
3.27213,49.80
3.27147,49.70
3.27147,49.60
3.27180,49.50
3.27180,49.40
3.27180,49.30
3.27213,49.21
3.27147,49.11
3.27147,49.01
3.27147,48.91
3.27114,48.81
3.27114,48.71
3.27114,48.61
3.27081,48.51
3.27114,48.41
3.27081,48.31
3.27147,48.21
3.27048,48.11
3.27016,48.01
3.27081,47.91
3.27114,47.81
3.27081,47.71
3.27081,47.61
3.27081,47.51
3.27147,47.42
3.27016,47.32
3.27048,47.22
3.27081,47.12
3.27081,47.02
3.27081,46.92
3.27081,46.82
3.27048,46.72
3.27048,46.62
3.27081,46.52
3.27048,46.42
3.27048,46.32
3.26983,46.22
3.27016,46.12
3.27048,46.03
3.27016,45.93
3.26983,45.82
3.27016,45.72
3.26950,45.63
3.27016,45.53
3.27016,45.43
3.26950,45.33
3.27016,45.23
3.26950,45.13
3.26917,45.03
3.26884,44.93
3.26917,44.83
3.26950,44.73
3.26950,44.63
3.26884,44.53
3.26884,44.43
3.26917,44.33
3.26884,44.24
3.26884,44.14
3.26851,44.04
3.26884,43.94
3.26884,43.84
3.26851,43.74
3.26819,43.64
3.26851,43.54
3.26753,43.44
3.26786,43.34
3.26786,43.24
3.26753,43.14
3.26786,43.04
3.26786,42.94
3.26819,42.84
3.26819,42.74
3.26753,42.64
3.26753,42.54
3.26753,42.44
3.26720,42.35
3.26687,42.25
3.26720,42.15
3.26753,42.05
3.26687,41.95
3.26654,41.85
3.26622,41.75
3.26654,41.65
3.26687,41.55
3.26622,41.45
3.26556,41.35
3.26556,41.25
3.26589,41.15
3.26589,41.05
3.26556,40.96
3.26523,40.86
3.26556,40.76
3.26556,40.66
3.26490,40.56
3.26457,40.46
3.26457,40.36
3.26490,40.26
3.26359,40.16
3.26359,40.06
3.26326,39.96
3.26293,39.86
3.26326,39.76
3.26326,39.66
3.26228,39.56
3.26228,39.46
3.26293,39.36
3.26260,39.26
3.26162,39.17
3.26129,39.07
3.26162,38.97
3.26096,38.87
3.26031,38.77
3.26096,38.67
3.26063,38.57
3.26063,38.47
3.25998,38.37
3.25965,38.27
3.25899,38.17
3.25866,38.07
3.25834,37.97
3.25866,37.87
3.25834,37.77
3.25834,37.67
3.25768,37.57
3.25735,37.47
3.25669,37.38
3.25669,37.28
3.25604,37.18
3.25604,37.08
3.25604,36.98
3.25604,36.88
3.25505,36.78
3.25472,36.68
3.25505,36.58
3.25440,36.48
3.25407,36.38
3.25407,36.28
3.25407,36.18
3.25275,36.08
3.25275,35.98
3.25210,35.89
3.25177,35.79
3.25210,35.69
3.25078,35.59
3.25078,35.49
3.25078,35.39
3.25078,35.29
3.25013,35.19
3.24980,35.09
3.24947,34.99
3.24881,34.89
3.24914,34.79
3.24914,34.69
3.24783,34.59
3.24783,34.49
3.24750,34.39
3.24783,34.29
3.24684,34.19
3.24684,34.10
3.24684,34.00
3.24586,33.90
3.24553,33.80
3.24586,33.70
3.24520,33.60
3.24455,33.50
3.24455,33.40
3.24389,33.30
3.24389,33.20
3.24389,33.10
3.24290,33.00
3.24356,32.90
3.24258,32.80
3.24290,32.71
3.24225,32.61
3.24192,32.51
3.24192,32.40
3.24126,32.31
3.24093,32.21
3.24093,32.11
3.24093,32.01
3.23995,31.91
3.23962,31.81
3.24028,31.71
3.23962,31.61
3.23995,31.51
3.23962,31.41
3.23864,31.31
3.23798,31.21
3.23831,31.11
3.23831,31.01
3.23798,30.92
3.23831,30.82
3.23798,30.72
3.23699,30.62
3.23699,30.52
3.23634,30.42
3.23634,30.32
3.23568,30.22
3.23601,30.12
3.23568,30.02
3.23634,29.92
3.23535,29.82
3.23502,29.72
3.23469,29.62
3.23404,29.52
3.23502,29.42
3.23371,29.32
3.23404,29.22
3.23338,29.13
3.23305,29.03
3.23371,28.93
3.23305,28.83
3.23272,28.73
3.23240,28.63
3.23207,28.53
3.23207,28.43
3.23174,28.33
3.23174,28.23
3.23207,28.13
3.23108,28.03
3.23108,27.93
3.23108,27.83
3.23108,27.73
3.23108,27.64
3.22977,27.54
3.22977,27.44
3.22944,27.34
3.22977,27.24
3.22944,27.14
3.22878,27.04
3.22911,26.94
3.22911,26.84
3.22846,26.74
3.22813,26.64
3.22846,26.54
3.22714,26.44
3.22714,26.34
3.22649,26.24
3.22649,26.14
3.22616,26.04
3.22616,25.94
3.22649,25.85
3.22550,25.75
3.22550,25.65
3.22452,25.55
3.22452,25.45
3.22419,25.35
3.22452,25.25
3.22353,25.15
3.22287,25.05
3.22255,24.95
3.22320,24.85
3.22287,24.75
3.22255,24.65
3.22189,24.55
3.22123,24.46
3.22090,24.35
3.22058,24.25
3.21992,24.15
3.22058,24.06
3.22025,23.96
3.21992,23.86
3.21926,23.76
3.21861,23.66
3.21828,23.56
3.21828,23.46
3.21795,23.36
3.21762,23.26
3.21729,23.16
3.21762,23.06
3.21664,22.96
3.21565,22.86
3.21664,22.76
3.21598,22.67
3.21499,22.57
3.21532,22.47
3.21434,22.37
3.21401,22.27
3.21434,22.17
3.21335,22.07
3.21302,21.97
3.21270,21.87
3.21270,21.77
3.21171,21.67
3.21237,21.57
3.21138,21.47
3.21105,21.37
3.21040,21.27
3.21007,21.17
3.21007,21.07
3.20974,20.97
3.20974,20.87
3.20876,20.78
3.20876,20.68
3.20810,20.58
3.20843,20.48
3.20777,20.38
3.20744,20.28
3.20711,20.18
3.20679,20.08
3.20646,19.98
3.20646,19.88
3.20613,19.78
3.20482,19.68
3.20514,19.58
3.20482,19.48
3.20514,19.39
3.20449,19.29
3.20383,19.19
3.20317,19.09
3.20350,18.99
3.20285,18.89
3.20285,18.79
3.20186,18.69
3.20219,18.59
3.20186,18.49
3.20186,18.39
3.20120,18.29
3.20022,18.19
3.20022,18.09
3.19956,17.99
3.20022,17.89
3.19923,17.79
3.19858,17.69
3.19858,17.60
3.19792,17.50
3.19792,17.40
3.19726,17.30
3.19661,17.20
3.19661,17.10
3.19628,17.00
3.19496,16.90
3.19431,16.80
3.19431,16.70
3.19431,16.60
3.19299,16.50
3.19234,16.40
3.19168,16.30
3.19168,16.20
3.19004,16.10
3.19037,16.00
3.18938,15.90
3.18873,15.81
3.18774,15.71
3.18741,15.61
3.18774,15.51
3.18610,15.41
3.18577,15.31
3.18511,15.21
3.18511,15.11
3.18380,15.01
3.18413,14.91
3.18314,14.81
3.18314,14.71
3.18216,14.61
3.18216,14.51
3.18150,14.41
3.18183,14.32
3.18085,14.22
3.18117,14.12
3.18117,14.02
3.17986,13.92
3.18019,13.82
3.18019,13.72
3.17920,13.62
3.17920,13.52
3.17888,13.42
3.17920,13.32
3.17822,13.22
3.17822,13.12
3.17888,13.02
3.17822,12.92
3.17855,12.82
3.17789,12.72
3.17723,12.62
3.17691,12.53
3.17691,12.43
3.17691,12.33
3.17658,12.23
3.17625,12.13
3.17625,12.03
3.17592,11.93
3.17526,11.83
3.17559,11.73
3.17461,11.63
3.17559,11.53
3.17461,11.43
3.17494,11.33
3.17329,11.23
3.17395,11.14
3.17362,11.04
3.17329,10.93
3.17329,10.83
3.17264,10.74
3.17165,10.64
3.17198,10.54
3.17165,10.44
3.17067,10.34
3.17100,10.24
3.17001,10.14
3.17034,10.04
3.17001,9.94
3.16870,9.84
3.16870,9.74
3.16771,9.64
3.16771,9.54
3.16673,9.44
3.16509,9.35
3.16574,9.25
3.16443,9.15
3.16410,9.05
3.16279,8.95
3.16180,8.85
3.16049,8.75
3.15885,8.65
3.15786,8.55
3.15622,8.45
3.15425,8.35
3.15294,8.25
3.15064,8.15
3.14932,8.05
3.14637,7.95
3.14374,7.85
3.14177,7.75
3.13882,7.65
3.13586,7.56
3.13356,7.46
3.13061,7.36
3.12798,7.26
3.12503,7.16
3.12207,7.06
3.11912,6.96
3.11649,6.86
3.11288,6.76
3.10992,6.66
3.10697,6.56
3.10336,6.46
3.10040,6.36
3.09646,6.26
3.09416,6.16
3.09055,6.07
3.08661,5.97
3.08333,5.87
3.07972,5.77
3.07578,5.67
3.07183,5.57
3.06888,5.47
3.06395,5.37
3.06034,5.27
3.05640,5.17
3.05279,5.07
3.04885,4.97
3.04425,4.87
3.04064,4.77
3.03637,4.67
3.03145,4.57
3.02685,4.47
3.02291,4.37
3.01766,4.28
3.01306,4.18
3.00814,4.08
3.00354,3.98
2.99829,3.88
2.99238,3.78
2.98778,3.68
2.98220,3.58
2.97661,3.48
2.97136,3.38
2.96512,3.28
2.95921,3.18
2.95363,3.08
2.94641,2.98
2.94050,2.88
2.93393,2.78
2.92671,2.68
2.92014,2.58
2.91193,2.49
2.90536,2.39
2.89748,2.29
2.88895,2.19
2.88074,2.09
2.87187,1.99
2.86268,1.89
2.85283,1.79
2.84363,1.69
2.83346,1.59
2.82196,1.49
2.81047,1.39
2.79767,1.29
2.78584,1.19
2.77205,1.10
2.75728,1.00
2.74152,0.90
2.72477,0.80
2.70573,0.70
2.68504,0.60
2.66206,0.50
2.63481,0.40
2.60361,0.30
2.56651,0.20
2.51594,0.10
2.42368,0.00
